1,185253,1.0,0
4,33772,1.0,0
2,294592,1.0,0
3,50197,1.0,0
3,111651,1.0,1
2,203192,1.0,1
1,166746,1.0,1
4,116299,1.0,1
1,160390,1.0,2
4,143609,1.0,2
3,137829,1.0,2
2,172540,1.0,2
3,149313,1.0,3
1,158583,1.0,3
4,153008,1.0,3
2,162632,1.0,3
3,154633,1.0,4
1,158445,1.0,4
2,159794,1.0,4
4,156644,1.0,4
2,159435,1.0,5
1,158984,0.9975000023841858,5
3,157415,1.0,5
4,158430,1.002500057220459,5
1,159792,0.9950000047683716,6
3,159148,1.002500057220459,6
2,159945,0.9975000023841858,6
4,159643,1.005000114440918,6
2,160765,0.9950000047683716,7
3,160453,1.005000114440918,7
4,160687,1.007500171661377,7
1,160713,0.9925000071525574,7
3,161460,1.005000114440918,8
4,161696,1.007500171661377,8
2,161761,0.9950000047683716,8
1,161706,0.9925000071525574,8
1,162701,0.9925000071525574,9
4,162703,1.007500171661377,9
3,162467,1.005000114440918,9
2,162756,0.9950000047683716,9
3,163575,1.010000228881836,10
1,163601,0.9925000071525574,10
2,163655,0.9925000071525574,10
4,163674,1.005000114440918,10
3,164596,1.012500286102295,11
2,164615,0.9900000095367432,11
1,164598,0.9955000281333923,11
4,164645,1.002500057220459,11
1,165595,0.9955000281333923,12
3,165611,1.012500286102295,12
4,165648,1.002500057220459,12
2,165605,0.9900000095367432,12
1,166555,0.9930000305175781,13
4,166620,1.0,13
3,166576,1.010000228881836,13
2,166558,0.987500011920929,13
3,167552,1.007500171661377,14
1,167529,0.9905000329017639,14
4,167583,0.9975000023841858,14
2,167528,0.9850000143051147,14
3,168561,1.007500171661377,15
2,168513,0.9850000143051147,15
4,168582,0.9975000023841858,15
1,168520,0.9905000329017639,15
4,169534,0.9950000047683716,16
1,169472,0.9880000352859497,16
3,169491,1.005000114440918,16
2,169451,0.9825000166893005,16
1,170428,0.9855000376701355,17
3,170441,1.002500057220459,17
2,170407,0.9800000190734863,17
4,170482,0.9925000071525574,17
3,171405,1.0,18
2,171375,0.9775000214576721,18
1,171393,0.9830000400543213,18
4,171435,0.9900000095367432,18
1,172377,0.9830000400543213,19
3,172407,1.0,19
2,172353,0.9775000214576721,19
4,172425,0.9900000095367432,19
2,173331,0.9775000214576721,20
1,173309,0.9805000424385071,20
3,173409,1.0,20
4,173416,0.9900000095367432,20
3,174411,1.0,21
2,174309,0.9775000214576721,21
1,174230,0.9780000448226929,21
4,174405,0.9900000095367432,21
2,175265,0.9750000238418579,22
1,175225,0.9780000448226929,22
3,175274,0.9950000047683716,22
4,175326,0.987500011920929,22
3,176271,0.9950000047683716,23
2,176186,0.9725000262260437,23
4,176314,0.987500011920929,23
1,176204,0.9780000448226929,23
1,177167,0.9755000472068787,24
4,177250,0.9850000143051147,24
3,177196,0.9925000071525574,24
2,177139,0.9700000286102295,24
4,178188,0.9825000166893005,25
1,178143,0.9755000472068787,25
2,178100,0.9675000309944153,25
3,178142,0.9900000095367432,25
4,179171,0.9825000166893005,26
1,179119,0.9755000472068787,26
2,179066,0.9675000309944153,26
3,179110,0.987500011920929,26
4,180154,0.9825000166893005,27
3,180099,0.987500011920929,27
1,180096,0.9755000472068787,27
2,180035,0.9675000309944153,27
1,181025,0.9730000495910645,28
4,181095,0.9800000190734863,28
3,181089,0.987500011920929,28
2,180951,0.9650000333786011,28
1,181975,0.9705000519752502,29
3,182078,0.987500011920929,29
2,181916,0.9650000333786011,29
4,182034,0.9775000214576721,29
3,183068,0.987500011920929,30
4,182986,0.9750000238418579,30
2,182881,0.9650000333786011,30
1,182947,0.9705000519752502,30
1,183876,0.968000054359436,31
3,183929,0.9850000143051147,31
2,183889,0.9675000309944153,31
4,183962,0.9750000238418579,31
1,184824,0.9655000567436218,32
3,184853,0.9825000166893005,32
4,184931,0.9725000262260437,32
2,184856,0.9675000309944153,32
2,185825,0.968500018119812,33
1,185789,0.9635000824928284,33
3,185806,0.9800000190734863,33
4,185871,0.9700000286102295,33
1,186752,0.9635000824928284,34
3,186788,0.9800000190734863,34
4,186814,0.9675000309944153,34
2,186794,0.968500018119812,34
3,187770,0.9800000190734863,35
1,187684,0.9610000848770142,35
2,187762,0.968500018119812,35
4,187759,0.9650000333786011,35
1,188646,0.9610000848770142,36
3,188694,0.9775000214576721,36
2,188732,0.968500018119812,36
4,188725,0.9650000333786011,36
2,189654,0.9660000205039978,37
1,189607,0.9610000848770142,37
3,189675,0.9775000214576721,37
4,189690,0.9650000333786011,37
4,190656,0.9650000333786011,38
2,190621,0.9660000205039978,38
3,190654,0.9775000214576721,38
1,190570,0.9610000848770142,38
4,191620,0.9650000333786011,39
2,191587,0.9660000205039978,39
3,191634,0.9775000214576721,39
1,191462,0.9585000872612,39
2,192553,0.9660000205039978,40
3,192429,0.9750000238418579,40
1,192417,0.9560000896453857,40
4,192586,0.9650000333786011,40
1,193373,0.9560000896453857,41
2,193519,0.9660000205039978,41
3,193418,0.9775000214576721,41
4,193491,0.9625000357627869,41
3,194397,0.9775000214576721,42
4,194454,0.9625000357627869,42
2,194486,0.9660000205039978,42
1,194330,0.9560000896453857,42
3,195330,0.9750000238418579,43
2,195452,0.9660000205039978,43
1,195287,0.9560000896453857,43
4,195416,0.9625000357627869,43
1,196244,0.9560000896453857,44
3,196273,0.9725000262260437,44
4,196379,0.9625000357627869,44
2,196325,0.9635000228881836,44
1,197219,0.9585000872612,45
3,197235,0.9700000286102295,45
4,197293,0.9600000381469727,45
2,197289,0.9635000228881836,45
2,198253,0.9635000228881836,46
1,198179,0.9585000872612,46
3,198207,0.9700000286102295,46
4,198252,0.9600000381469727,46
2,199142,0.9610000252723694,47
3,199126,0.9675000309944153,47
1,199113,0.9560000896453857,47
4,199213,0.9600000381469727,47
1,200057,0.9535000920295715,48
2,200069,0.9585000276565552,48
3,200066,0.9650000333786011,48
4,200129,0.9575000405311584,48
3,201012,0.9625000357627869,49
1,201002,0.9510000944137573,49
2,201009,0.956000030040741,49
4,201051,0.9550000429153442,49
1,201954,0.9510000944137573,50
3,201975,0.9625000357627869,50
2,201965,0.956000030040741,50
4,202006,0.9550000429153442,50
1,202860,0.9485000967979431,51
2,202921,0.956000030040741,51
3,202886,0.9600000381469727,51
4,202962,0.9550000429153442,51
3,203718,0.9550000429153442,52
1,203688,0.9435001015663147,52
4,203743,0.95250004529953,52
2,203771,0.9535000324249268,52
3,204648,0.95250004529953,53
2,204674,0.9510000348091125,53
4,204678,0.9500000476837158,53
1,204640,0.9460000991821289,53
3,205603,0.95250004529953,54
4,205628,0.9500000476837158,54
2,205626,0.9510000348091125,54
1,205586,0.9460000991821289,54
4,206552,0.9475000500679016,55
2,206514,0.9485000371932983,55
3,206497,0.9500000476837158,55
1,206502,0.9435001015663147,55
3,207415,0.9475000500679016,56
2,207427,0.9460000395774841,56
1,207421,0.9410001039505005,56
4,207467,0.9450000524520874,56
2,208352,0.9435000419616699,57
4,208384,0.9425000548362732,57
3,208346,0.9450000524520874,57
1,208349,0.9385001063346863,57
1,209289,0.9385001063346863,58
3,209293,0.9450000524520874,58
4,209327,0.9425000548362732,58
2,209296,0.9435000419616699,58
4,210247,0.940000057220459,59
2,210191,0.9410000443458557,59
1,210192,0.9360001087188721,59
3,210192,0.9425000548362732,59
3,211107,0.940000057220459,60
1,211106,0.9335001111030579,60
2,211105,0.9385000467300415,60
4,211156,0.9375000596046448,60
2,212031,0.9360000491142273,61
1,212030,0.9310001134872437,61
4,212067,0.9350000619888306,61
3,212033,0.9375000596046448,61
1,212962,0.9310001134872437,62
3,212972,0.9375000596046448,62
4,213002,0.9350000619888306,62
2,212966,0.9360000491142273,62
3,213864,0.9350000619888306,63
1,213862,0.9285001158714294,63
2,213860,0.9335000514984131,63
4,213914,0.9325000643730164,63
2,214770,0.9310000538825989,64
1,214770,0.9260001182556152,64
3,214772,0.9325000643730164,64
4,214817,0.9300000667572021,64
3,215692,0.9300000667572021,65
2,215690,0.9285000562667847,65
1,215688,0.923500120639801,65
4,215723,0.9275000691413879,65
3,216564,0.9275000691413879,66
4,216621,0.9250000715255737,66
1,216562,0.9210001230239868,66
2,216558,0.9260000586509705,66
3,217453,0.9250000715255737,67
4,217511,0.9225000739097595,67
2,217450,0.9235000610351562,67
1,217452,0.9185001254081726,67
1,218355,0.9160001277923584,68
3,218364,0.9225000739097595,68
2,218373,0.9235000610351562,68
4,218433,0.9225000739097595,68
3,219290,0.9225000739097595,69
2,219296,0.9235000610351562,69
1,219272,0.9160001277923584,69
4,219357,0.9225000739097595,69
1,220092,0.9135001301765442,70
3,220213,0.9225000739097595,70
2,220220,0.9235000610351562,70
4,220278,0.9225000739097595,70
1,221035,0.9160001277923584,71
4,221147,0.9200000762939453,71
3,221079,0.9200000762939453,71
2,221090,0.921000063419342,71
3,222002,0.9200000762939453,72
1,221953,0.9160001277923584,72
2,222012,0.921000063419342,72
4,222068,0.9200000762939453,72
2,222831,0.9185000658035278,73
4,222988,0.9200000762939453,73
3,222923,0.9200000762939453,73
1,222814,0.9135001301765442,73
1,223781,0.9160001277923584,74
3,223819,0.9175000786781311,74
2,223782,0.921000063419342,74
4,223858,0.9175000786781311,74
3,224737,0.9175000786781311,75
2,224703,0.921000063419342,75
4,224776,0.9175000786781311,75
1,224698,0.9160001277923584,75
3,225657,0.9175000786781311,76
1,225614,0.9160001277923584,76
4,225694,0.9175000786781311,76
2,225624,0.921000063419342,76
3,226576,0.9175000786781311,77
1,226531,0.9160001277923584,77
2,226545,0.921000063419342,77
4,226611,0.9175000786781311,77
1,227346,0.9135001301765442,78
2,227370,0.9185000658035278,78
3,227425,0.9150000810623169,78
4,227495,0.9150000810623169,78
4,228353,0.9125000834465027,79
2,228280,0.9160000681877136,79
1,228268,0.9160001277923584,79
3,228294,0.9125000834465027,79
4,229230,0.9100000858306885,80
3,229205,0.9095000624656677,80
1,229198,0.9185001254081726,80
2,229200,0.9185000658035278,80
1,230118,0.9185001254081726,81
3,230116,0.9095000624656677,81
4,230140,0.9100000858306885,81
2,230120,0.9185000658035278,81
2,230992,0.9160000681877136,82
3,230982,0.9070000648498535,82
1,230926,0.9160001277923584,82
4,231037,0.9075000882148743,82
3,231856,0.9045000672340393,83
2,231868,0.9135000705718994,83
1,231839,0.9130001068115234,83
4,231911,0.9050000905990601,83
2,232759,0.9110000729560852,84
3,232748,0.9020000696182251,84
4,232787,0.9025000929832458,84
1,232744,0.9105001091957092,84
3,233652,0.9020000696182251,85
2,233671,0.9110000729560852,85
1,233656,0.9105001091957092,85
4,233691,0.9025000929832458,85
3,234524,0.8995000720024109,86
2,234582,0.9110000729560852,86
1,234567,0.9105001091957092,86
4,234578,0.9000000953674316,86
3,235408,0.8970000743865967,87
1,235443,0.908000111579895,87
4,235463,0.8975000977516174,87
2,235446,0.908500075340271,87
3,236303,0.8940000534057617,88
4,236343,0.8950001001358032,88
1,236326,0.9055001139640808,88
2,236328,0.9060000777244568,88
3,237204,0.8965000510215759,89
2,237221,0.9035000801086426,89
1,237222,0.9030001163482666,89
4,237226,0.892500102519989,89
4,238114,0.8885000944137573,90
3,238071,0.8940000534057617,90
1,238125,0.9030001163482666,90
2,238125,0.9035000801086426,90
3,238950,0.8915000557899475,91
1,238986,0.9005001187324524,91
2,238985,0.9010000824928284,91
4,238993,0.8860000967979431,91
1,239864,0.8980001211166382,92
3,239839,0.8890000581741333,92
2,239863,0.8985000848770142,92
4,239868,0.8835000991821289,92
2,240761,0.8985000848770142,93
3,240729,0.8890000581741333,93
1,240762,0.8980001211166382,93
4,240752,0.8835000991821289,93
1,241662,0.8980001211166382,94
3,241595,0.8865000605583191,94
2,241660,0.8985000848770142,94
4,241638,0.8845000863075256,94
1,242514,0.895500123500824,95
2,242513,0.8960000872612,95
3,242476,0.8840000629425049,95
4,242516,0.8820000886917114,95
3,243308,0.8815000653266907,96
2,243317,0.8935000896453857,96
1,243411,0.895500123500824,96
4,243398,0.8820000886917114,96
3,244190,0.8815000653266907,97
2,244210,0.8935000896453857,97
4,244281,0.8820000886917114,97
1,244306,0.895500123500824,97
1,245204,0.895500123500824,98
3,245074,0.8815000653266907,98
4,245162,0.8820000886917114,98
2,245104,0.8935000896453857,98
1,245944,0.8905001282691956,99
4,246045,0.8820000886917114,99
3,245935,0.8820000886917114,99
2,245998,0.8935000896453857,99
3,246820,0.8820000886917114,100
2,246892,0.8935000896453857,100
1,246836,0.8905001282691956,100
4,246927,0.8820000886917114,100
1,247727,0.8905001282691956,101
3,247704,0.8820000886917114,101
2,247785,0.8935000896453857,101
4,247809,0.8820000886917114,101
2,248679,0.8935000896453857,102
1,248619,0.8905001282691956,102
3,248588,0.8820000886917114,102
4,248691,0.8820000886917114,102
1,249476,0.8850001096725464,103
3,249474,0.8840000629425049,103
2,249517,0.8910000920295715,103
4,249538,0.8795000910758972,103
1,250362,0.8850001096725464,104
4,250418,0.8795000910758972,104
3,250359,0.8840000629425049,104
2,250409,0.8910000920295715,104
3,251214,0.8815000653266907,105
4,251297,0.8795000910758972,105
1,251248,0.8850001096725464,105
2,251299,0.8910000920295715,105
2,252191,0.8910000920295715,106
3,252092,0.8785000443458557,106
1,252109,0.8825001120567322,106
4,252152,0.877000093460083,106
2,253021,0.8885000944137573,107
3,252981,0.8810000419616699,107
4,253020,0.8745000958442688,107
1,252987,0.880000114440918,107
3,253863,0.8810000419616699,108
2,253910,0.8885000944137573,108
1,253868,0.880000114440918,108
4,253895,0.8745000958442688,108
1,254749,0.880000114440918,109
3,254714,0.8785000443458557,109
2,254798,0.8885000944137573,109
4,254752,0.8720000982284546,109
3,255582,0.8760000467300415,110
4,255622,0.8700001239776611,110
1,255598,0.8775001168251038,110
2,255622,0.8860000967979431,110
3,256454,0.8735000491142273,111
2,256464,0.8835000991821289,111
1,256448,0.8750001192092896,111
4,256492,0.8700001239776611,111
1,257309,0.8725001215934753,112
3,257328,0.8725000619888306,112
4,257361,0.8700001239776611,112
2,257346,0.8835000991821289,112
4,258206,0.8675001263618469,113
3,258155,0.8700000643730164,113
1,258183,0.8725001215934753,113
2,258159,0.8810001015663147,113
1,259018,0.8700001239776611,114
2,259010,0.8785001039505005,114
4,259046,0.8650001287460327,114
3,259001,0.8675000667572021,114
3,259859,0.8650000691413879,115
2,259870,0.8760001063346863,115
1,259870,0.8675001263618469,115
4,259890,0.8625001311302185,115
1,260738,0.8675001263618469,116
2,260746,0.8760001063346863,116
3,260726,0.8650000691413879,116
4,260752,0.8625001311302185,116
3,261562,0.8625000715255737,117
2,261623,0.8760001063346863,117
4,261600,0.8600001335144043,117
1,261606,0.8675001263618469,117
1,262438,0.8650001287460327,118
3,262415,0.8600000739097595,118
2,262451,0.8735001087188721,118
4,262452,0.8575001358985901,118
1,263285,0.8625001311302185,119
2,263298,0.8710001111030579,119
4,263299,0.8550001382827759,119
3,263273,0.8570000529289246,119
2,264169,0.8710001111030579,120
1,264078,0.8600001335144043,120
3,264131,0.8570000529289246,120
4,264154,0.8550001382827759,120
3,264954,0.8545000553131104,121
1,264939,0.8600001335144043,121
2,265040,0.8710001111030579,121
4,264987,0.8525001406669617,121
1,265799,0.8590001463890076,122
3,265801,0.8520000576972961,122
2,265840,0.8685001134872437,122
4,265835,0.8495001196861267,122
1,266580,0.8565001487731934,123
2,266709,0.8685001134872437,123
3,266655,0.8520000576972961,123
4,266684,0.8495001196861267,123
1,267437,0.8565001487731934,124
2,267578,0.8685001134872437,124
4,267535,0.8495001196861267,124
3,267508,0.8520000576972961,124
4,268365,0.8470001220703125,125
2,268446,0.8685001134872437,125
1,268302,0.8590001463890076,125
3,268332,0.8495000600814819,125
1,269176,0.8615001440048218,126
2,269229,0.8660001158714294,126
4,269215,0.849000096321106,126
3,269181,0.8485000729560852,126
1,270038,0.8615001440048218,127
3,269972,0.846000075340271,127
2,270095,0.8660001158714294,127
4,270064,0.849000096321106,127
4,270893,0.8465000987052917,128
1,270895,0.8590001463890076,128
3,270864,0.8485000729560852,128
2,270924,0.8635001182556152,128
3,271733,0.8510000705718994,129
2,271764,0.861000120639801,129
1,271751,0.8570001721382141,129
4,271741,0.8475000858306885,129
3,272563,0.8485000729560852,130
1,272580,0.8545001745223999,130
2,272588,0.8585001230239868,130
4,272590,0.8485000729560852,130
2,273447,0.8585001230239868,131
3,273414,0.8485000729560852,131
1,273436,0.8545001745223999,131
4,273439,0.8485000729560852,131
1,274285,0.8520001769065857,132
4,274281,0.846000075340271,132
3,274275,0.8510000705718994,132
2,274295,0.8560001254081726,132
1,275138,0.8520001769065857,133
3,275100,0.8485000729560852,133
2,275151,0.8560001254081726,133
4,275123,0.843000054359436,133
1,275960,0.8495001792907715,134
3,275942,0.846000075340271,134
2,275968,0.8535001277923584,134
4,275966,0.843000054359436,134
3,276790,0.846000075340271,135
1,276811,0.8495001792907715,135
4,276810,0.843000054359436,135
2,276822,0.8535001277923584,135
2,277675,0.8535001277923584,136
3,277637,0.846000075340271,136
1,277660,0.8495001792907715,136
4,277652,0.843000054359436,136
3,278466,0.8435000777244568,137
1,278512,0.8495001792907715,137
2,278528,0.8535001277923584,137
4,278491,0.8400000333786011,137
1,279330,0.8470001816749573,138
2,279340,0.8510001301765442,138
3,279306,0.8395000696182251,138
4,279331,0.8400000333786011,138
4,280171,0.8400000333786011,139
3,280146,0.8395000696182251,139
1,280178,0.8470001816749573,139
2,280191,0.8510001301765442,139
1,280963,0.8445001840591431,140
3,280961,0.8370000720024109,140
4,281011,0.8400000333786011,140
2,280969,0.84850013256073,140
3,281810,0.8395000696182251,141
1,281816,0.8470001816749573,141
2,281822,0.8515001535415649,141
4,281829,0.8375000357627869,141
2,282648,0.8490001559257507,142
4,282659,0.8350000381469727,142
3,282637,0.8370000720024109,142
1,282645,0.8445001840591431,142
2,283493,0.8460001349449158,143
3,283483,0.8395000696182251,143
1,283489,0.8435001969337463,143
4,283486,0.8325000405311584,143
1,284334,0.8435001969337463,144
3,284287,0.8370000720024109,144
2,284339,0.8460001349449158,144
4,284305,0.8300000429153442,144
1,285178,0.8435001969337463,145
3,285115,0.8345000743865967,145
2,285185,0.8460001349449158,145
4,285141,0.8340000510215759,145
1,286022,0.8435001969337463,146
3,285945,0.8320000767707825,146
2,286031,0.8460001349449158,146
4,285976,0.8360000252723694,146
3,286771,0.8295000791549683,147
1,286806,0.8410001993179321,147
2,286877,0.8460001349449158,147
4,286804,0.8335000276565552,147
3,287594,0.827000081539154,148
2,287723,0.8460001349449158,148
1,287648,0.8410001993179321,148
4,287628,0.831000030040741,148
3,288435,0.8295000791549683,149
4,288470,0.8335000276565552,149
2,288570,0.8460001349449158,149
1,288489,0.8410001993179321,149
1,289236,0.8385002017021179,150
4,289303,0.8335000276565552,150
3,289266,0.8295000791549683,150
2,289416,0.8460001349449158,150
2,290262,0.8460001349449158,151
1,290075,0.8385002017021179,151
4,290137,0.8335000276565552,151
3,290097,0.8295000791549683,151
1,290915,0.8385002017021179,152
3,290924,0.8255000710487366,152
2,291108,0.8460001349449158,152
4,290959,0.831000030040741,152
1,291754,0.8385002017021179,153
2,291954,0.8460001349449158,153
3,291762,0.8280000686645508,153
4,291798,0.8335000276565552,153
3,292592,0.8280000686645508,154
2,292800,0.8460001349449158,154
1,292594,0.8385002017021179,154
4,292631,0.8335000276565552,154
3,293421,0.8280000686645508,155
4,293465,0.8335000276565552,155
1,293432,0.8385002017021179,155
2,293646,0.8460001349449158,155
3,294266,0.830500066280365,156
1,294272,0.8385002017021179,156
4,294304,0.8365000486373901,156
2,294492,0.8460001349449158,156
3,295120,0.8330000638961792,157
1,295112,0.8385002017021179,157
2,295338,0.8460001349449158,157
4,295155,0.8390000462532043,157
3,296005,0.8355000615119934,158
1,295997,0.8410001993179321,158
2,296077,0.8435001373291016,158
4,296021,0.8415000438690186,158
2,296884,0.8410001397132874,159
3,296858,0.8380000591278076,159
4,296867,0.8455000519752502,159
1,296857,0.8435001969337463,159
4,297697,0.843000054359436,160
2,297726,0.8410001397132874,160
1,297700,0.8435001969337463,160
3,297671,0.8355000615119934,160
2,298566,0.8410001397132874,161
3,298505,0.8335000872612,161
1,298545,0.8435001969337463,161
4,298538,0.8410000801086426,161
2,299388,0.8385001420974731,162
3,299364,0.8360000848770142,162
4,299380,0.8410000801086426,162
1,299383,0.8410001993179321,162
3,300202,0.8360000848770142,163
1,300225,0.8410001993179321,163
2,300226,0.8385001420974731,163
4,300221,0.8410000801086426,163
3,301019,0.8335000872612,164
4,301045,0.8385000824928284,164
1,301067,0.8410001993179321,164
2,301065,0.8385001420974731,164
3,301857,0.8355000615119934,165
1,301909,0.8410001993179321,165
2,301903,0.8385001420974731,165
4,301885,0.8385000824928284,165
3,302694,0.8355000615119934,166
1,302751,0.8410001993179321,166
2,302742,0.8385001420974731,166
4,302723,0.8385000824928284,166
4,303562,0.8385000824928284,167
2,303581,0.8385001420974731,167
1,303592,0.8410001993179321,167
3,303532,0.8355000615119934,167
1,304434,0.8410001993179321,168
3,304362,0.8330000638961792,168
2,304419,0.8385001420974731,168
4,304390,0.8360000848770142,168
1,305277,0.8410001993179321,169
2,305258,0.8385001420974731,169
3,305207,0.8355000615119934,169
4,305235,0.8385000824928284,169
1,306118,0.8410001993179321,170
2,306003,0.8360001444816589,170
3,306004,0.8330000638961792,170
4,306073,0.8385000824928284,170
2,306866,0.8385001420974731,171
3,306865,0.8355000615119934,171
1,306929,0.8385002017021179,171
4,306889,0.8360000848770142,171
2,307701,0.8365001678466797,172
4,307716,0.8335000872612,172
3,307702,0.8355000615119934,172
1,307729,0.8360002040863037,172
1,308566,0.8360002040863037,173
4,308545,0.830500066280365,173
3,308529,0.8330000638961792,173
2,308538,0.8365001678466797,173
4,309374,0.8295000791549683,174
3,309371,0.8355000615119934,174
1,309387,0.8335002064704895,174
2,309380,0.8395001888275146,174
3,310200,0.8330000638961792,175
2,310208,0.8370001912117004,175
1,310206,0.8310002088546753,175
4,310203,0.8295000791549683,175
3,311010,0.830500066280365,176
1,311038,0.8310002088546753,176
2,311045,0.8370001912117004,176
4,311022,0.827000081539154,176
3,311772,0.8280000686645508,177
4,311848,0.827000081539154,177
2,311882,0.8370001912117004,177
1,311760,0.8285002112388611,177
4,312676,0.827000081539154,178
3,312573,0.8255000710487366,178
1,312590,0.8285002112388611,178
2,312720,0.8370001912117004,178
2,313556,0.8370001912117004,179
1,313419,0.8285002112388611,179
3,313410,0.8280000686645508,179
4,313455,0.8245000839233398,179
1,314249,0.8285002112388611,180
